{
  "files": {
    "static/js/0.b0f5dc6c.chunk.js": "/static/js/0.b0f5dc6c.chunk.js",
    "static/js/0.b0f5dc6c.chunk.js.map": "/static/js/0.b0f5dc6c.chunk.js.map",
    "main.js": "/static/js/main.93acbcd0.chunk.js",
    "main.js.map": "/static/js/main.93acbcd0.chunk.js.map",
    "runtime-main.js": "/static/js/runtime-main.5b9af825.js",
    "runtime-main.js.map": "/static/js/runtime-main.5b9af825.js.map",
    "static/css/3.ed1e30a0.chunk.css": "/static/css/3.ed1e30a0.chunk.css",
    "static/js/3.f85fa9f7.chunk.js": "/static/js/3.f85fa9f7.chunk.js",
    "static/js/3.f85fa9f7.chunk.js.map": "/static/js/3.f85fa9f7.chunk.js.map",
    "static/js/4.aa37caef.chunk.js": "/static/js/4.aa37caef.chunk.js",
    "static/js/4.aa37caef.chunk.js.map": "/static/js/4.aa37caef.chunk.js.map",
    "static/js/5.989c6d43.chunk.js": "/static/js/5.989c6d43.chunk.js",
    "static/js/5.989c6d43.chunk.js.map": "/static/js/5.989c6d43.chunk.js.map",
    "static/js/6.288df37d.chunk.js": "/static/js/6.288df37d.chunk.js",
    "static/js/6.288df37d.chunk.js.map": "/static/js/6.288df37d.chunk.js.map",
    "static/js/7.d4b22786.chunk.js": "/static/js/7.d4b22786.chunk.js",
    "static/js/7.d4b22786.chunk.js.map": "/static/js/7.d4b22786.chunk.js.map",
    "static/js/8.3ac97b4e.chunk.js": "/static/js/8.3ac97b4e.chunk.js",
    "static/js/8.3ac97b4e.chunk.js.map": "/static/js/8.3ac97b4e.chunk.js.map",
    "index.html": "/index.html",
    "precache-manifest.c741c3a474982e91706224855dee37cc.js": "/precache-manifest.c741c3a474982e91706224855dee37cc.js",
    "service-worker.js": "/service-worker.js",
    "static/css/3.ed1e30a0.chunk.css.map": "/static/css/3.ed1e30a0.chunk.css.map",
    "static/js/3.f85fa9f7.chunk.js.LICENSE.txt": "/static/js/3.f85fa9f7.chunk.js.LICENSE.txt",
    "static/js/4.aa37caef.chunk.js.LICENSE.txt": "/static/js/4.aa37caef.chunk.js.LICENSE.txt",
    "static/js/5.989c6d43.chunk.js.LICENSE.txt": "/static/js/5.989c6d43.chunk.js.LICENSE.txt",
    "static/js/6.288df37d.chunk.js.LICENSE.txt": "/static/js/6.288df37d.chunk.js.LICENSE.txt",
    "static/media/Frame 3481.png": "/static/media/Frame 3481.b9979d34.png",
    "static/media/inter.css": "/static/media/Inter.var.f065685b.woff2",
    "static/media/LOGO@2x.png": "/static/media/LOGO@2x.29fdc387.png",
    "static/media/arrow-down-blue.svg": "/static/media/arrow-down-blue.114fab91.svg",
    "static/media/arrow-down-grey.svg": "/static/media/arrow-down-grey.4d4a6a99.svg",
    "static/media/arrow-right-white.png": "/static/media/arrow-right-white.337ad716.png",
    "static/media/arrow-right.svg": "/static/media/arrow-right.e96d8158.svg",
    "static/media/bg.png": "/static/media/bg.bfd323f2.png",
    "static/media/binance.svg": "/static/media/binance.d2e3bfc5.svg",
    "static/media/blue-loader.svg": "/static/media/blue-loader.f5459d3a.svg",
    "static/media/circle-grey.svg": "/static/media/circle-grey.5dd950ec.svg",
    "static/media/circle.svg": "/static/media/circle.716403ba.svg",
    "static/media/coinbaseWalletIcon.svg": "/static/media/coinbaseWalletIcon.aa4c7a76.svg",
    "static/media/dropdown-blue.svg": "/static/media/dropdown-blue.80a3ae25.svg",
    "static/media/dropdown.svg": "/static/media/dropdown.50dbd07d.svg",
    "static/media/dropup-blue.svg": "/static/media/dropup-blue.345dad74.svg",
    "static/media/image_flip.png": "/static/media/image_flip.bfd323f2.png",
    "static/media/link.svg": "/static/media/link.50c67f3c.svg",
    "static/media/logo-pipi-dark.png": "/static/media/logo-pipi-dark.cb05aff2.png",
    "static/media/logob.png": "/static/media/logob.29fdc387.png",
    "static/media/logoh.png": "/static/media/logoh.29fdc387.png",
    "static/media/logow.png": "/static/media/logow.55a617be.png",
    "static/media/magnifying-glass.svg": "/static/media/magnifying-glass.52eac682.svg",
    "static/media/menu.svg": "/static/media/menu.981ecca4.svg",
    "static/media/metamask.png": "/static/media/metamask.023762b6.png",
    "static/media/plus-blue.svg": "/static/media/plus-blue.899a4aa9.svg",
    "static/media/plus-grey.svg": "/static/media/plus-grey.62281ca8.svg",
    "static/media/portisIcon.png": "/static/media/portisIcon.b234b2bf.png",
    "static/media/question-mark.svg": "/static/media/question-mark.1761ff9c.svg",
    "static/media/question.svg": "/static/media/question.63be1e24.svg",
    "static/media/spinner.svg": "/static/media/spinner.a9842492.svg",
    "static/media/trustWallet.png": "/static/media/trustWallet.edcc1ab5.png",
    "static/media/walletConnectIcon.svg": "/static/media/walletConnectIcon.5e81cac2.svg",
    "static/media/x.svg": "/static/media/x.5b8e2186.svg"
  },
  "entrypoints": [
    "static/js/runtime-main.5b9af825.js",
    "static/css/3.ed1e30a0.chunk.css",
    "static/js/3.f85fa9f7.chunk.js",
    "static/js/main.93acbcd0.chunk.js"
  ]
}